[gd_scene load_steps=6 format=2]

[ext_resource path="res://assets/MaterialCrewFace.material" type="Material" id=1]
[ext_resource path="res://assets/MaterialCrewHat.material" type="Material" id=2]
[ext_resource path="res://scripts/piratecrewHat.gd" type="Script" id=3]

[sub_resource type="ArrayMesh" id=1]
resource_name = "PirateCrewHat"
surfaces/0 = {
"aabb": AABB( -0.951058, -1, -1, 1.90212, 2, 2 ),
"array_data": PoolByteArray( 0, 0, 0, 0, 0, 0, 128, 191, 0, 0, 0, 128, 13, 137, 40, 0, 136, 0, 39, 129, 139, 58, 0, 60, 192, 90, 38, 190, 125, 196, 89, 191, 97, 255, 255, 62, 13, 137, 40, 0, 136, 0, 39, 129, 232, 58, 94, 59, 229, 195, 217, 62, 121, 196, 89, 191, 190, 54, 158, 62, 13, 137, 40, 0, 136, 0, 39, 129, 46, 58, 94, 59, 84, 62, 57, 63, 245, 249, 228, 190, 239, 149, 6, 63, 88, 172, 34, 0, 227, 18, 122, 129, 209, 57, 189, 58, 15, 196, 89, 63, 161, 150, 6, 191, 0, 0, 0, 128, 88, 172, 34, 0, 227, 18, 122, 129, 23, 57, 189, 58, 229, 195, 217, 62, 121, 196, 89, 191, 190, 54, 158, 62, 88, 172, 34, 0, 227, 18, 122, 129, 116, 57, 94, 59, 0, 0, 0, 0, 0, 0, 128, 191, 0, 0, 0, 128, 222, 137, 24, 0, 182, 0, 154, 129, 209, 45, 0, 60, 58, 150, 6, 191, 79, 196, 89, 191, 0, 0, 0, 128, 222, 137, 24, 0, 182, 0, 154, 129, 93, 48, 94, 59, 192, 90, 38, 190, 125, 196, 89, 191, 97, 255, 255, 62, 222, 137, 24, 0, 182, 0, 154, 129, 209, 41, 94, 59, 0, 0, 0, 0, 0, 0, 128, 191, 0, 0, 0, 128, 222, 137, 232, 0, 74, 0, 154, 129, 93, 52, 0, 60, 192, 90, 38, 190, 125, 196, 89, 191, 97, 255, 255, 190, 222, 137, 232, 0, 74, 0, 154, 129, 23, 53, 94, 59, 58, 150, 6, 191, 79, 196, 89, 191, 0, 0, 0, 128, 222, 137, 232, 0, 74, 0, 154, 129, 69, 51, 94, 59, 0, 0, 0, 0, 0, 0, 128, 191, 0, 0, 0, 128, 13, 137, 216, 0, 120, 0, 39, 129, 69, 55, 0, 60, 229, 195, 217, 62, 121, 196, 89, 191, 190, 54, 158, 190, 13, 137, 216, 0, 120, 0, 39, 129, 255, 55, 94, 59, 192, 90, 38, 190, 125, 196, 89, 191, 97, 255, 255, 190, 13, 137, 216, 0, 120, 0, 39, 129, 139, 54, 94, 59, 84, 62, 57, 63, 245, 249, 228, 190, 239, 149, 6, 63, 114, 215, 34, 0, 227, 18, 122, 129, 209, 57, 189, 58, 135, 120, 115, 63, 0, 0, 0, 0, 231, 54, 158, 62, 114, 215, 34, 0, 227, 18, 122, 129, 116, 57, 28, 58, 15, 196, 89, 63, 161, 150, 6, 191, 0, 0, 0, 128, 114, 215, 34, 0, 227, 18, 122, 129, 23, 57, 189, 58, 187, 130, 141, 190, 0, 250, 228, 190, 38, 196, 89, 63, 3, 215, 119, 0, 131, 18, 9, 129, 69, 59, 189, 58, 0, 0, 0, 0, 0, 0, 0, 0, 255, 255, 127, 63, 3, 215, 119, 0, 131, 18, 9, 129, 232, 58, 28, 58, 190, 150, 134, 62, 190, 150, 6, 191, 99, 27, 79, 63, 3, 215, 119, 0, 131, 18, 9, 129, 139, 58, 189, 58, 30, 249, 100, 191, 114, 249, 228, 190, 0, 0, 0, 128, 144, 215, 40, 0, 209, 18, 140, 129, 209, 49, 189, 58, 135, 120, 115, 191, 0, 0, 0, 0, 231, 54, 158, 62, 144, 215, 40, 0, 209, 18, 140, 129, 93, 48, 28, 58, 46, 45, 48, 191, 166, 150, 6, 191, 153, 255, 255, 62, 144, 215, 40, 0, 209, 18, 140, 129, 209, 45, 189, 58, 187, 130, 141, 190, 0, 250, 228, 190, 38, 196, 89, 191, 184, 215, 161, 0, 95, 18, 175, 129, 209, 53, 189, 58, 30, 121, 22, 191, 0, 0, 0, 0, 184, 27, 79, 191, 184, 215, 161, 0, 95, 18, 175, 129, 23, 53, 28, 58, 46, 45, 48, 191, 166, 150, 6, 191, 153, 255, 255, 190, 184, 215, 161, 0, 95, 18, 175, 129, 93, 52, 189, 58, 84, 62, 57, 63, 245, 249, 228, 190, 239, 149, 6, 191, 67, 215, 158, 0, 107, 18, 65, 129, 93, 56, 189, 58, 30, 121, 22, 63, 0, 0, 0, 0, 184, 27, 79, 191, 67, 215, 158, 0, 107, 18, 65, 129, 255, 55, 28, 58, 190, 150, 134, 62, 190, 150, 6, 191, 99, 27, 79, 191, 67, 215, 158, 0, 107, 18, 65, 129, 69, 55, 189, 58, 84, 62, 57, 63, 245, 249, 228, 190, 239, 149, 6, 63, 101, 241, 74, 0, 182, 0, 102, 129, 209, 57, 189, 58, 30, 121, 22, 63, 0, 0, 0, 0, 184, 27, 79, 63, 101, 241, 74, 0, 182, 0, 102, 129, 46, 58, 28, 58, 135, 120, 115, 63, 0, 0, 0, 0, 231, 54, 158, 62, 101, 241, 74, 0, 182, 0, 102, 129, 116, 57, 28, 58, 187, 130, 141, 190, 0, 250, 228, 190, 38, 196, 89, 63, 218, 241, 119, 0, 136, 0, 217, 129, 69, 59, 189, 58, 30, 121, 22, 191, 0, 0, 0, 0, 184, 27, 79, 63, 218, 241, 119, 0, 136, 0, 217, 129, 162, 59, 28, 58, 0, 0, 0, 0, 0, 0, 0, 0, 255, 255, 127, 63, 218, 241, 119, 0, 136, 0, 217, 129, 232, 58, 28, 58, 30, 249, 100, 191, 114, 249, 228, 190, 0, 0, 0, 128, 131, 241, 0, 0, 0, 0, 129, 129, 209, 49, 189, 58, 135, 120, 115, 191, 0, 0, 0, 0, 231, 54, 158, 190, 131, 241, 0, 0, 0, 0, 129, 129, 69, 51, 28, 58, 135, 120, 115, 191, 0, 0, 0, 0, 231, 54, 158, 62, 131, 241, 0, 0, 0, 0, 129, 129, 93, 48, 28, 58, 187, 130, 141, 190, 0, 250, 228, 190, 38, 196, 89, 191, 218, 241, 137, 0, 120, 0, 217, 129, 209, 53, 189, 58, 0, 0, 0, 0, 0, 0, 0, 0, 255, 255, 127, 191, 218, 241, 137, 0, 120, 0, 217, 129, 139, 54, 28, 58, 30, 121, 22, 191, 0, 0, 0, 0, 184, 27, 79, 191, 218, 241, 137, 0, 120, 0, 217, 129, 23, 53, 28, 58, 84, 62, 57, 63, 245, 249, 228, 190, 239, 149, 6, 191, 101, 241, 182, 0, 74, 0, 102, 129, 93, 56, 189, 58, 135, 120, 115, 63, 0, 0, 0, 0, 231, 54, 158, 190, 101, 241, 182, 0, 74, 0, 102, 129, 186, 56, 28, 58, 30, 121, 22, 63, 0, 0, 0, 0, 184, 27, 79, 191, 101, 241, 182, 0, 74, 0, 102, 129, 255, 55, 28, 58, 187, 130, 141, 62, 0, 250, 228, 62, 38, 196, 89, 63, 51, 84, 79, 0, 161, 238, 81, 129, 139, 58, 123, 57, 192, 90, 38, 62, 124, 196, 89, 63, 97, 255, 255, 62, 51, 84, 79, 0, 161, 238, 81, 129, 46, 58, 217, 56, 46, 45, 48, 63, 166, 150, 6, 63, 153, 255, 255, 62, 51, 84, 79, 0, 161, 238, 81, 129, 209, 57, 123, 57, 84, 62, 57, 191, 245, 249, 228, 62, 239, 149, 6, 63, 197, 84, 74, 0, 149, 238, 191, 129, 0, 60, 123, 57, 229, 195, 217, 190, 121, 196, 89, 63, 190, 54, 158, 62, 197, 84, 74, 0, 149, 238, 191, 129, 162, 59, 217, 56, 190, 150, 134, 190, 190, 150, 6, 63, 99, 27, 79, 63, 197, 84, 74, 0, 149, 238, 191, 129, 69, 59, 123, 57, 84, 62, 57, 191, 245, 249, 228, 62, 239, 149, 6, 191, 168, 84, 222, 0, 29, 238, 134, 129, 93, 52, 123, 57, 229, 195, 217, 190, 121, 196, 89, 63, 190, 54, 158, 190, 168, 84, 222, 0, 29, 238, 134, 129, 69, 51, 217, 56, 15, 196, 89, 191, 161, 150, 6, 63, 0, 0, 0, 128, 168, 84, 222, 0, 29, 238, 134, 129, 209, 49, 123, 57, 187, 130, 141, 62, 0, 250, 228, 62, 38, 196, 89, 191, 4, 84, 161, 0, 125, 238, 247, 129, 69, 55, 123, 57, 192, 90, 38, 62, 124, 196, 89, 63, 97, 255, 255, 190, 4, 84, 161, 0, 125, 238, 247, 129, 139, 54, 217, 56, 190, 150, 134, 190, 190, 150, 6, 63, 99, 27, 79, 191, 4, 84, 161, 0, 125, 238, 247, 129, 209, 53, 123, 57, 30, 249, 100, 63, 114, 249, 228, 62, 0, 0, 0, 128, 91, 84, 232, 0, 47, 238, 116, 129, 23, 57, 123, 57, 58, 150, 6, 63, 79, 196, 89, 63, 0, 0, 0, 128, 91, 84, 232, 0, 47, 238, 116, 129, 186, 56, 217, 56, 46, 45, 48, 63, 166, 150, 6, 63, 153, 255, 255, 190, 91, 84, 232, 0, 47, 238, 116, 129, 93, 56, 123, 57, 58, 150, 6, 63, 79, 196, 89, 63, 0, 0, 0, 128, 34, 119, 232, 0, 74, 0, 102, 129, 186, 56, 217, 56, 0, 0, 0, 0, 0, 0, 128, 63, 0, 0, 0, 128, 34, 119, 232, 0, 74, 0, 102, 129, 93, 56, 56, 56, 192, 90, 38, 62, 124, 196, 89, 63, 97, 255, 255, 190, 34, 119, 232, 0, 74, 0, 102, 129, 255, 55, 217, 56, 58, 150, 6, 63, 79, 196, 89, 63, 0, 0, 0, 128, 62, 100, 211, 0, 74, 0, 102, 129, 186, 56, 217, 56, 192, 90, 38, 62, 124, 196, 89, 63, 97, 255, 255, 190, 62, 100, 211, 0, 74, 0, 102, 129, 255, 55, 217, 56, 46, 45, 48, 63, 166, 150, 6, 63, 153, 255, 255, 190, 62, 100, 211, 0, 74, 0, 102, 129, 93, 56, 123, 57, 46, 45, 48, 63, 166, 150, 6, 63, 153, 255, 255, 190, 51, 84, 177, 0, 95, 18, 81, 129, 93, 56, 123, 57, 192, 90, 38, 62, 124, 196, 89, 63, 97, 255, 255, 190, 51, 84, 177, 0, 95, 18, 81, 129, 255, 55, 217, 56, 187, 130, 141, 62, 0, 250, 228, 62, 38, 196, 89, 191, 51, 84, 177, 0, 95, 18, 81, 129, 69, 55, 123, 57, 192, 90, 38, 62, 124, 196, 89, 63, 97, 255, 255, 190, 243, 119, 216, 0, 120, 0, 217, 129, 139, 54, 217, 56, 0, 0, 0, 0, 0, 0, 128, 63, 0, 0, 0, 128, 243, 119, 216, 0, 120, 0, 217, 129, 209, 53, 56, 56, 229, 195, 217, 190, 121, 196, 89, 63, 190, 54, 158, 190, 243, 119, 216, 0, 120, 0, 217, 129, 23, 53, 217, 56, 192, 90, 38, 62, 124, 196, 89, 63, 97, 255, 255, 190, 233, 100, 183, 0, 120, 0, 217, 129, 139, 54, 217, 56, 229, 195, 217, 190, 121, 196, 89, 63, 190, 54, 158, 190, 233, 100, 183, 0, 120, 0, 217, 129, 23, 53, 217, 56, 190, 150, 134, 190, 190, 150, 6, 63, 99, 27, 79, 191, 233, 100, 183, 0, 120, 0, 217, 129, 209, 53, 123, 57, 190, 150, 134, 190, 190, 150, 6, 63, 99, 27, 79, 191, 197, 84, 182, 0, 107, 18, 191, 129, 209, 53, 123, 57, 229, 195, 217, 190, 121, 196, 89, 63, 190, 54, 158, 190, 197, 84, 182, 0, 107, 18, 191, 129, 23, 53, 217, 56, 84, 62, 57, 191, 245, 249, 228, 62, 239, 149, 6, 191, 197, 84, 182, 0, 107, 18, 191, 129, 93, 52, 123, 57, 229, 195, 217, 190, 121, 196, 89, 63, 190, 54, 158, 190, 214, 119, 0, 0, 0, 0, 129, 129, 69, 51, 217, 56, 0, 0, 0, 0, 0, 0, 128, 63, 0, 0, 0, 128, 214, 119, 0, 0, 0, 0, 129, 129, 209, 49, 56, 56, 229, 195, 217, 190, 121, 196, 89, 63, 190, 54, 158, 62, 214, 119, 0, 0, 0, 0, 129, 129, 93, 48, 217, 56, 229, 195, 217, 190, 121, 196, 89, 63, 190, 54, 158, 190, 179, 100, 0, 0, 0, 0, 129, 129, 69, 51, 217, 56, 229, 195, 217, 190, 121, 196, 89, 63, 190, 54, 158, 62, 179, 100, 0, 0, 0, 0, 129, 129, 93, 48, 217, 56, 15, 196, 89, 191, 161, 150, 6, 63, 0, 0, 0, 128, 179, 100, 0, 0, 0, 0, 129, 129, 209, 49, 123, 57, 15, 196, 89, 191, 161, 150, 6, 63, 0, 0, 0, 128, 168, 84, 34, 0, 227, 18, 134, 129, 209, 49, 123, 57, 229, 195, 217, 190, 121, 196, 89, 63, 190, 54, 158, 62, 168, 84, 34, 0, 227, 18, 134, 129, 93, 48, 217, 56, 84, 62, 57, 191, 245, 249, 228, 62, 239, 149, 6, 63, 168, 84, 34, 0, 227, 18, 134, 129, 209, 45, 123, 57, 229, 195, 217, 190, 121, 196, 89, 63, 190, 54, 158, 62, 243, 119, 40, 0, 136, 0, 217, 129, 162, 59, 217, 56, 0, 0, 0, 0, 0, 0, 128, 63, 0, 0, 0, 128, 243, 119, 40, 0, 136, 0, 217, 129, 69, 59, 56, 56, 192, 90, 38, 62, 124, 196, 89, 63, 97, 255, 255, 62, 243, 119, 40, 0, 136, 0, 217, 129, 232, 58, 217, 56, 229, 195, 217, 190, 121, 196, 89, 63, 190, 54, 158, 62, 233, 100, 73, 0, 136, 0, 217, 129, 162, 59, 217, 56, 192, 90, 38, 62, 124, 196, 89, 63, 97, 255, 255, 62, 233, 100, 73, 0, 136, 0, 217, 129, 232, 58, 217, 56, 190, 150, 134, 190, 190, 150, 6, 63, 99, 27, 79, 63, 233, 100, 73, 0, 136, 0, 217, 129, 69, 59, 123, 57, 190, 150, 134, 190, 190, 150, 6, 63, 99, 27, 79, 63, 4, 84, 95, 0, 131, 18, 247, 129, 69, 59, 123, 57, 192, 90, 38, 62, 124, 196, 89, 63, 97, 255, 255, 62, 4, 84, 95, 0, 131, 18, 247, 129, 232, 58, 217, 56, 187, 130, 141, 62, 0, 250, 228, 62, 38, 196, 89, 63, 4, 84, 95, 0, 131, 18, 247, 129, 139, 58, 123, 57, 192, 90, 38, 62, 124, 196, 89, 63, 97, 255, 255, 62, 34, 119, 24, 0, 182, 0, 102, 129, 46, 58, 217, 56, 0, 0, 0, 0, 0, 0, 128, 63, 0, 0, 0, 128, 34, 119, 24, 0, 182, 0, 102, 129, 209, 57, 56, 56, 58, 150, 6, 63, 79, 196, 89, 63, 0, 0, 0, 128, 34, 119, 24, 0, 182, 0, 102, 129, 116, 57, 217, 56, 192, 90, 38, 62, 124, 196, 89, 63, 97, 255, 255, 62, 62, 100, 45, 0, 182, 0, 102, 129, 46, 58, 217, 56, 58, 150, 6, 63, 79, 196, 89, 63, 0, 0, 0, 128, 62, 100, 45, 0, 182, 0, 102, 129, 116, 57, 217, 56, 46, 45, 48, 63, 166, 150, 6, 63, 153, 255, 255, 62, 62, 100, 45, 0, 182, 0, 102, 129, 209, 57, 123, 57, 46, 45, 48, 63, 166, 150, 6, 63, 153, 255, 255, 62, 91, 84, 24, 0, 209, 18, 116, 129, 209, 57, 123, 57, 58, 150, 6, 63, 79, 196, 89, 63, 0, 0, 0, 128, 91, 84, 24, 0, 209, 18, 116, 129, 116, 57, 217, 56, 30, 249, 100, 63, 114, 249, 228, 62, 0, 0, 0, 128, 91, 84, 24, 0, 209, 18, 116, 129, 23, 57, 123, 57, 135, 120, 115, 63, 0, 0, 0, 0, 231, 54, 158, 190, 112, 41, 216, 0, 47, 238, 116, 129, 186, 56, 28, 58, 30, 249, 100, 63, 114, 249, 228, 62, 0, 0, 0, 128, 112, 41, 216, 0, 47, 238, 116, 129, 23, 57, 123, 57, 46, 45, 48, 63, 166, 150, 6, 63, 153, 255, 255, 190, 112, 41, 216, 0, 47, 238, 116, 129, 93, 56, 123, 57, 135, 120, 115, 63, 0, 0, 0, 0, 231, 54, 158, 190, 100, 23, 183, 0, 74, 0, 102, 129, 186, 56, 28, 58, 46, 45, 48, 63, 166, 150, 6, 63, 153, 255, 255, 190, 100, 23, 183, 0, 74, 0, 102, 129, 93, 56, 123, 57, 30, 121, 22, 63, 0, 0, 0, 0, 184, 27, 79, 191, 100, 23, 183, 0, 74, 0, 102, 129, 255, 55, 28, 58, 30, 121, 22, 63, 0, 0, 0, 0, 184, 27, 79, 191, 72, 41, 161, 0, 95, 18, 81, 129, 255, 55, 28, 58, 46, 45, 48, 63, 166, 150, 6, 63, 153, 255, 255, 190, 72, 41, 161, 0, 95, 18, 81, 129, 93, 56, 123, 57, 187, 130, 141, 62, 0, 250, 228, 62, 38, 196, 89, 191, 72, 41, 161, 0, 95, 18, 81, 129, 69, 55, 123, 57, 0, 0, 0, 0, 0, 0, 0, 0, 255, 255, 127, 191, 253, 41, 137, 0, 125, 238, 247, 129, 139, 54, 28, 58, 187, 130, 141, 62, 0, 250, 228, 62, 38, 196, 89, 191, 253, 41, 137, 0, 125, 238, 247, 129, 69, 55, 123, 57, 190, 150, 134, 190, 190, 150, 6, 63, 99, 27, 79, 191, 253, 41, 137, 0, 125, 238, 247, 129, 209, 53, 123, 57, 0, 0, 0, 0, 0, 0, 0, 0, 255, 255, 127, 191, 218, 23, 138, 0, 120, 0, 217, 129, 139, 54, 28, 58, 190, 150, 134, 190, 190, 150, 6, 63, 99, 27, 79, 191, 218, 23, 138, 0, 120, 0, 217, 129, 209, 53, 123, 57, 30, 121, 22, 191, 0, 0, 0, 0, 184, 27, 79, 191, 218, 23, 138, 0, 120, 0, 217, 129, 23, 53, 28, 58, 30, 121, 22, 191, 0, 0, 0, 0, 184, 27, 79, 191, 189, 41, 158, 0, 107, 18, 191, 129, 23, 53, 28, 58, 190, 150, 134, 190, 190, 150, 6, 63, 99, 27, 79, 191, 189, 41, 158, 0, 107, 18, 191, 129, 209, 53, 123, 57, 84, 62, 57, 191, 245, 249, 228, 62, 239, 149, 6, 191, 189, 41, 158, 0, 107, 18, 191, 129, 93, 52, 123, 57, 135, 120, 115, 191, 0, 0, 0, 0, 231, 54, 158, 190, 142, 41, 222, 0, 29, 238, 134, 129, 69, 51, 28, 58, 84, 62, 57, 191, 245, 249, 228, 62, 239, 149, 6, 191, 142, 41, 222, 0, 29, 238, 134, 129, 93, 52, 123, 57, 15, 196, 89, 191, 161, 150, 6, 63, 0, 0, 0, 128, 142, 41, 222, 0, 29, 238, 134, 129, 209, 49, 123, 57, 135, 120, 115, 191, 0, 0, 0, 0, 231, 54, 158, 190, 132, 23, 0, 0, 0, 0, 129, 129, 69, 51, 28, 58, 15, 196, 89, 191, 161, 150, 6, 63, 0, 0, 0, 128, 132, 23, 0, 0, 0, 0, 129, 129, 209, 49, 123, 57, 135, 120, 115, 191, 0, 0, 0, 0, 231, 54, 158, 62, 132, 23, 0, 0, 0, 0, 129, 129, 93, 48, 28, 58, 135, 120, 115, 191, 0, 0, 0, 0, 231, 54, 158, 62, 142, 41, 34, 0, 227, 18, 134, 129, 93, 48, 28, 58, 15, 196, 89, 191, 161, 150, 6, 63, 0, 0, 0, 128, 142, 41, 34, 0, 227, 18, 134, 129, 209, 49, 123, 57, 84, 62, 57, 191, 245, 249, 228, 62, 239, 149, 6, 63, 142, 41, 34, 0, 227, 18, 134, 129, 209, 45, 123, 57, 30, 121, 22, 191, 0, 0, 0, 0, 184, 27, 79, 63, 189, 41, 98, 0, 149, 238, 191, 129, 162, 59, 28, 58, 84, 62, 57, 191, 245, 249, 228, 62, 239, 149, 6, 63, 189, 41, 98, 0, 149, 238, 191, 129, 0, 60, 123, 57, 190, 150, 134, 190, 190, 150, 6, 63, 99, 27, 79, 63, 189, 41, 98, 0, 149, 238, 191, 129, 69, 59, 123, 57, 30, 121, 22, 191, 0, 0, 0, 0, 184, 27, 79, 63, 218, 23, 118, 0, 136, 0, 217, 129, 162, 59, 28, 58, 190, 150, 134, 190, 190, 150, 6, 63, 99, 27, 79, 63, 218, 23, 118, 0, 136, 0, 217, 129, 69, 59, 123, 57, 0, 0, 0, 0, 0, 0, 0, 0, 255, 255, 127, 63, 218, 23, 118, 0, 136, 0, 217, 129, 232, 58, 28, 58, 0, 0, 0, 0, 0, 0, 0, 0, 255, 255, 127, 63, 253, 41, 119, 0, 131, 18, 247, 129, 232, 58, 28, 58, 190, 150, 134, 190, 190, 150, 6, 63, 99, 27, 79, 63, 253, 41, 119, 0, 131, 18, 247, 129, 69, 59, 123, 57, 187, 130, 141, 62, 0, 250, 228, 62, 38, 196, 89, 63, 253, 41, 119, 0, 131, 18, 247, 129, 139, 58, 123, 57, 30, 121, 22, 63, 0, 0, 0, 0, 184, 27, 79, 63, 72, 41, 95, 0, 161, 238, 81, 129, 46, 58, 28, 58, 187, 130, 141, 62, 0, 250, 228, 62, 38, 196, 89, 63, 72, 41, 95, 0, 161, 238, 81, 129, 139, 58, 123, 57, 46, 45, 48, 63, 166, 150, 6, 63, 153, 255, 255, 62, 72, 41, 95, 0, 161, 238, 81, 129, 209, 57, 123, 57, 30, 121, 22, 63, 0, 0, 0, 0, 184, 27, 79, 63, 100, 23, 73, 0, 182, 0, 102, 129, 46, 58, 28, 58, 46, 45, 48, 63, 166, 150, 6, 63, 153, 255, 255, 62, 100, 23, 73, 0, 182, 0, 102, 129, 209, 57, 123, 57, 135, 120, 115, 63, 0, 0, 0, 0, 231, 54, 158, 62, 100, 23, 73, 0, 182, 0, 102, 129, 116, 57, 28, 58, 135, 120, 115, 63, 0, 0, 0, 0, 231, 54, 158, 62, 112, 41, 40, 0, 209, 18, 116, 129, 116, 57, 28, 58, 46, 45, 48, 63, 166, 150, 6, 63, 153, 255, 255, 62, 112, 41, 40, 0, 209, 18, 116, 129, 209, 57, 123, 57, 30, 249, 100, 63, 114, 249, 228, 62, 0, 0, 0, 128, 112, 41, 40, 0, 209, 18, 116, 129, 23, 57, 123, 57, 30, 121, 22, 63, 0, 0, 0, 0, 184, 27, 79, 191, 38, 15, 137, 0, 120, 0, 39, 129, 255, 55, 28, 58, 187, 130, 141, 62, 0, 250, 228, 62, 38, 196, 89, 191, 38, 15, 137, 0, 120, 0, 39, 129, 69, 55, 123, 57, 0, 0, 0, 0, 0, 0, 0, 0, 255, 255, 127, 191, 38, 15, 137, 0, 120, 0, 39, 129, 139, 54, 28, 58, 30, 121, 22, 63, 0, 0, 0, 0, 184, 27, 79, 191, 38, 233, 138, 0, 120, 0, 39, 129, 255, 55, 28, 58, 0, 0, 0, 0, 0, 0, 0, 0, 255, 255, 127, 191, 38, 233, 138, 0, 120, 0, 39, 129, 139, 54, 28, 58, 190, 150, 134, 62, 190, 150, 6, 191, 99, 27, 79, 191, 38, 233, 138, 0, 120, 0, 39, 129, 69, 55, 189, 58, 190, 150, 134, 62, 190, 150, 6, 191, 99, 27, 79, 191, 3, 215, 137, 0, 125, 238, 9, 129, 69, 55, 189, 58, 0, 0, 0, 0, 0, 0, 0, 0, 255, 255, 127, 191, 3, 215, 137, 0, 125, 238, 9, 129, 139, 54, 28, 58, 187, 130, 141, 190, 0, 250, 228, 190, 38, 196, 89, 191, 3, 215, 137, 0, 125, 238, 9, 129, 209, 53, 189, 58, 30, 121, 22, 191, 0, 0, 0, 0, 184, 27, 79, 191, 155, 15, 182, 0, 74, 0, 154, 129, 23, 53, 28, 58, 84, 62, 57, 191, 245, 249, 228, 62, 239, 149, 6, 191, 155, 15, 182, 0, 74, 0, 154, 129, 93, 52, 123, 57, 135, 120, 115, 191, 0, 0, 0, 0, 231, 54, 158, 190, 155, 15, 182, 0, 74, 0, 154, 129, 69, 51, 28, 58, 30, 121, 22, 191, 0, 0, 0, 0, 184, 27, 79, 191, 156, 233, 183, 0, 74, 0, 154, 129, 23, 53, 28, 58, 135, 120, 115, 191, 0, 0, 0, 0, 231, 54, 158, 190, 156, 233, 183, 0, 74, 0, 154, 129, 69, 51, 28, 58, 46, 45, 48, 191, 166, 150, 6, 191, 153, 255, 255, 190, 156, 233, 183, 0, 74, 0, 154, 129, 93, 52, 189, 58, 46, 45, 48, 191, 166, 150, 6, 191, 153, 255, 255, 190, 144, 215, 216, 0, 47, 238, 140, 129, 93, 52, 189, 58, 135, 120, 115, 191, 0, 0, 0, 0, 231, 54, 158, 190, 144, 215, 216, 0, 47, 238, 140, 129, 69, 51, 28, 58, 30, 249, 100, 191, 114, 249, 228, 190, 0, 0, 0, 128, 144, 215, 216, 0, 47, 238, 140, 129, 209, 49, 189, 58, 135, 120, 115, 191, 0, 0, 0, 0, 231, 54, 158, 62, 155, 15, 74, 0, 182, 0, 154, 129, 93, 48, 28, 58, 84, 62, 57, 191, 245, 249, 228, 62, 239, 149, 6, 63, 155, 15, 74, 0, 182, 0, 154, 129, 209, 45, 123, 57, 30, 121, 22, 191, 0, 0, 0, 0, 184, 27, 79, 63, 155, 15, 74, 0, 182, 0, 154, 129, 209, 41, 28, 58, 135, 120, 115, 191, 0, 0, 0, 0, 231, 54, 158, 62, 156, 233, 73, 0, 182, 0, 154, 129, 93, 48, 28, 58, 30, 121, 22, 191, 0, 0, 0, 0, 184, 27, 79, 63, 156, 233, 73, 0, 182, 0, 154, 129, 209, 41, 28, 58, 46, 45, 48, 191, 166, 150, 6, 191, 153, 255, 255, 62, 156, 233, 73, 0, 182, 0, 154, 129, 209, 45, 189, 58, 46, 45, 48, 191, 166, 150, 6, 191, 153, 255, 255, 62, 184, 215, 95, 0, 161, 238, 175, 129, 209, 45, 189, 58, 30, 121, 22, 191, 0, 0, 0, 0, 184, 27, 79, 63, 184, 215, 95, 0, 161, 238, 175, 129, 209, 41, 28, 58, 187, 130, 141, 190, 0, 250, 228, 190, 38, 196, 89, 63, 184, 215, 95, 0, 161, 238, 175, 129, 0, 0, 189, 58, 0, 0, 0, 0, 0, 0, 0, 0, 255, 255, 127, 63, 38, 15, 119, 0, 136, 0, 39, 129, 232, 58, 28, 58, 187, 130, 141, 62, 0, 250, 228, 62, 38, 196, 89, 63, 38, 15, 119, 0, 136, 0, 39, 129, 139, 58, 123, 57, 30, 121, 22, 63, 0, 0, 0, 0, 184, 27, 79, 63, 38, 15, 119, 0, 136, 0, 39, 129, 46, 58, 28, 58, 0, 0, 0, 0, 0, 0, 0, 0, 255, 255, 127, 63, 38, 233, 118, 0, 136, 0, 39, 129, 232, 58, 28, 58, 30, 121, 22, 63, 0, 0, 0, 0, 184, 27, 79, 63, 38, 233, 118, 0, 136, 0, 39, 129, 46, 58, 28, 58, 190, 150, 134, 62, 190, 150, 6, 191, 99, 27, 79, 63, 38, 233, 118, 0, 136, 0, 39, 129, 139, 58, 189, 58, 190, 150, 134, 62, 190, 150, 6, 191, 99, 27, 79, 63, 67, 215, 98, 0, 149, 238, 65, 129, 139, 58, 189, 58, 30, 121, 22, 63, 0, 0, 0, 0, 184, 27, 79, 63, 67, 215, 98, 0, 149, 238, 65, 129, 46, 58, 28, 58, 84, 62, 57, 63, 245, 249, 228, 190, 239, 149, 6, 63, 67, 215, 98, 0, 149, 238, 65, 129, 209, 57, 189, 58, 135, 120, 115, 63, 0, 0, 0, 0, 231, 54, 158, 62, 125, 15, 0, 0, 0, 0, 127, 129, 116, 57, 28, 58, 30, 249, 100, 63, 114, 249, 228, 62, 0, 0, 0, 128, 125, 15, 0, 0, 0, 0, 127, 129, 23, 57, 123, 57, 135, 120, 115, 63, 0, 0, 0, 0, 231, 54, 158, 190, 125, 15, 0, 0, 0, 0, 127, 129, 186, 56, 28, 58, 135, 120, 115, 63, 0, 0, 0, 0, 231, 54, 158, 62, 124, 233, 0, 0, 0, 0, 127, 129, 116, 57, 28, 58, 135, 120, 115, 63, 0, 0, 0, 0, 231, 54, 158, 190, 124, 233, 0, 0, 0, 0, 127, 129, 186, 56, 28, 58, 15, 196, 89, 63, 161, 150, 6, 191, 0, 0, 0, 128, 124, 233, 0, 0, 0, 0, 127, 129, 23, 57, 189, 58, 15, 196, 89, 63, 161, 150, 6, 191, 0, 0, 0, 128, 114, 215, 222, 0, 29, 238, 122, 129, 23, 57, 189, 58, 135, 120, 115, 63, 0, 0, 0, 0, 231, 54, 158, 190, 114, 215, 222, 0, 29, 238, 122, 129, 186, 56, 28, 58, 84, 62, 57, 63, 245, 249, 228, 190, 239, 149, 6, 191, 114, 215, 222, 0, 29, 238, 122, 129, 93, 56, 189, 58, 229, 195, 217, 62, 121, 196, 89, 191, 190, 54, 158, 190, 59, 172, 182, 0, 107, 18, 65, 129, 255, 55, 94, 59, 84, 62, 57, 63, 245, 249, 228, 190, 239, 149, 6, 191, 59, 172, 182, 0, 107, 18, 65, 129, 93, 56, 189, 58, 190, 150, 134, 62, 190, 150, 6, 191, 99, 27, 79, 191, 59, 172, 182, 0, 107, 18, 65, 129, 69, 55, 189, 58, 229, 195, 217, 62, 121, 196, 89, 191, 190, 54, 158, 190, 23, 156, 183, 0, 120, 0, 39, 129, 255, 55, 94, 59, 190, 150, 134, 62, 190, 150, 6, 191, 99, 27, 79, 191, 23, 156, 183, 0, 120, 0, 39, 129, 69, 55, 189, 58, 192, 90, 38, 190, 125, 196, 89, 191, 97, 255, 255, 190, 23, 156, 183, 0, 120, 0, 39, 129, 139, 54, 94, 59, 192, 90, 38, 190, 125, 196, 89, 191, 97, 255, 255, 190, 252, 172, 161, 0, 125, 238, 9, 129, 139, 54, 94, 59, 190, 150, 134, 62, 190, 150, 6, 191, 99, 27, 79, 191, 252, 172, 161, 0, 125, 238, 9, 129, 69, 55, 189, 58, 187, 130, 141, 190, 0, 250, 228, 190, 38, 196, 89, 191, 252, 172, 161, 0, 125, 238, 9, 129, 209, 53, 189, 58, 192, 90, 38, 190, 125, 196, 89, 191, 97, 255, 255, 190, 205, 172, 177, 0, 95, 18, 175, 129, 23, 53, 94, 59, 187, 130, 141, 190, 0, 250, 228, 190, 38, 196, 89, 191, 205, 172, 177, 0, 95, 18, 175, 129, 209, 53, 189, 58, 46, 45, 48, 191, 166, 150, 6, 191, 153, 255, 255, 190, 205, 172, 177, 0, 95, 18, 175, 129, 93, 52, 189, 58, 192, 90, 38, 190, 125, 196, 89, 191, 97, 255, 255, 190, 194, 156, 211, 0, 74, 0, 154, 129, 23, 53, 94, 59, 46, 45, 48, 191, 166, 150, 6, 191, 153, 255, 255, 190, 194, 156, 211, 0, 74, 0, 154, 129, 93, 52, 189, 58, 58, 150, 6, 191, 79, 196, 89, 191, 0, 0, 0, 128, 194, 156, 211, 0, 74, 0, 154, 129, 69, 51, 94, 59, 58, 150, 6, 191, 79, 196, 89, 191, 0, 0, 0, 128, 165, 172, 232, 0, 47, 238, 140, 129, 69, 51, 94, 59, 46, 45, 48, 191, 166, 150, 6, 191, 153, 255, 255, 190, 165, 172, 232, 0, 47, 238, 140, 129, 93, 52, 189, 58, 30, 249, 100, 191, 114, 249, 228, 190, 0, 0, 0, 128, 165, 172, 232, 0, 47, 238, 140, 129, 209, 49, 189, 58, 58, 150, 6, 191, 79, 196, 89, 191, 0, 0, 0, 128, 165, 172, 24, 0, 209, 18, 140, 129, 93, 48, 94, 59, 30, 249, 100, 191, 114, 249, 228, 190, 0, 0, 0, 128, 165, 172, 24, 0, 209, 18, 140, 129, 209, 49, 189, 58, 46, 45, 48, 191, 166, 150, 6, 191, 153, 255, 255, 62, 165, 172, 24, 0, 209, 18, 140, 129, 209, 45, 189, 58, 58, 150, 6, 191, 79, 196, 89, 191, 0, 0, 0, 128, 194, 156, 45, 0, 182, 0, 154, 129, 93, 48, 94, 59, 46, 45, 48, 191, 166, 150, 6, 191, 153, 255, 255, 62, 194, 156, 45, 0, 182, 0, 154, 129, 209, 45, 189, 58, 192, 90, 38, 190, 125, 196, 89, 191, 97, 255, 255, 62, 194, 156, 45, 0, 182, 0, 154, 129, 209, 41, 94, 59, 192, 90, 38, 190, 125, 196, 89, 191, 97, 255, 255, 62, 205, 172, 79, 0, 161, 238, 175, 129, 209, 41, 94, 59, 46, 45, 48, 191, 166, 150, 6, 191, 153, 255, 255, 62, 205, 172, 79, 0, 161, 238, 175, 129, 209, 45, 189, 58, 187, 130, 141, 190, 0, 250, 228, 190, 38, 196, 89, 63, 205, 172, 79, 0, 161, 238, 175, 129, 0, 0, 189, 58, 15, 196, 89, 63, 161, 150, 6, 191, 0, 0, 0, 128, 88, 172, 222, 0, 29, 238, 122, 129, 23, 57, 189, 58, 84, 62, 57, 63, 245, 249, 228, 190, 239, 149, 6, 191, 88, 172, 222, 0, 29, 238, 122, 129, 93, 56, 189, 58, 229, 195, 217, 62, 121, 196, 89, 191, 190, 54, 158, 190, 88, 172, 222, 0, 29, 238, 122, 129, 186, 56, 94, 59, 15, 196, 89, 63, 161, 150, 6, 191, 0, 0, 0, 128, 77, 156, 0, 0, 0, 0, 127, 129, 23, 57, 189, 58, 229, 195, 217, 62, 121, 196, 89, 191, 190, 54, 158, 190, 77, 156, 0, 0, 0, 0, 127, 129, 186, 56, 94, 59, 229, 195, 217, 62, 121, 196, 89, 191, 190, 54, 158, 62, 77, 156, 0, 0, 0, 0, 127, 129, 116, 57, 94, 59, 229, 195, 217, 62, 121, 196, 89, 191, 190, 54, 158, 62, 42, 137, 0, 0, 0, 0, 127, 129, 116, 57, 94, 59, 229, 195, 217, 62, 121, 196, 89, 191, 190, 54, 158, 190, 42, 137, 0, 0, 0, 0, 127, 129, 186, 56, 94, 59, 0, 0, 0, 0, 0, 0, 128, 191, 0, 0, 0, 128, 42, 137, 0, 0, 0, 0, 127, 129, 23, 57, 0, 60, 192, 90, 38, 190, 125, 196, 89, 191, 97, 255, 255, 62, 252, 172, 95, 0, 131, 18, 9, 129, 232, 58, 94, 59, 187, 130, 141, 190, 0, 250, 228, 190, 38, 196, 89, 63, 252, 172, 95, 0, 131, 18, 9, 129, 69, 59, 189, 58, 190, 150, 134, 62, 190, 150, 6, 191, 99, 27, 79, 63, 252, 172, 95, 0, 131, 18, 9, 129, 139, 58, 189, 58, 192, 90, 38, 190, 125, 196, 89, 191, 97, 255, 255, 62, 23, 156, 73, 0, 136, 0, 39, 129, 232, 58, 94, 59, 190, 150, 134, 62, 190, 150, 6, 191, 99, 27, 79, 63, 23, 156, 73, 0, 136, 0, 39, 129, 139, 58, 189, 58, 229, 195, 217, 62, 121, 196, 89, 191, 190, 54, 158, 62, 23, 156, 73, 0, 136, 0, 39, 129, 46, 58, 94, 59, 229, 195, 217, 62, 121, 196, 89, 191, 190, 54, 158, 62, 59, 172, 74, 0, 149, 238, 65, 129, 46, 58, 94, 59, 190, 150, 134, 62, 190, 150, 6, 191, 99, 27, 79, 63, 59, 172, 74, 0, 149, 238, 65, 129, 139, 58, 189, 58, 84, 62, 57, 63, 245, 249, 228, 190, 239, 149, 6, 63, 59, 172, 74, 0, 149, 238, 65, 129, 209, 57, 189, 58 ),
"array_index_data": PoolByteArray(  ),
"blend_shape_data": [  ],
"format": 97303,
"index_count": 0,
"material": ExtResource( 1 ),
"primitive": 4,
"skeleton_aabb": [  ],
"vertex_count": 240
}
surfaces/1 = {
"aabb": AABB( -0.968682, -0.952777, -1.01853, 2.159, 1.97131, 2.03706 ),
"array_data": PoolByteArray( 13, 34, 144, 62, 65, 56, 233, 62, 57, 205, 93, 63, 51, 84, 79, 0, 161, 238, 81, 129, 139, 58, 123, 57, 238, 111, 41, 62, 144, 205, 93, 63, 233, 94, 2, 63, 51, 84, 79, 0, 161, 238, 81, 129, 46, 58, 217, 56, 244, 112, 51, 63, 33, 21, 9, 63, 6, 95, 2, 63, 51, 84, 79, 0, 161, 238, 81, 129, 209, 57, 123, 57, 30, 173, 60, 191, 54, 56, 233, 62, 103, 20, 9, 63, 197, 84, 74, 0, 149, 238, 191, 129, 0, 60, 123, 57, 247, 204, 221, 190, 141, 205, 93, 63, 77, 37, 161, 62, 197, 84, 74, 0, 149, 238, 191, 129, 162, 59, 217, 56, 58, 21, 137, 190, 58, 21, 9, 63, 229, 241, 82, 63, 197, 84, 74, 0, 149, 238, 191, 129, 69, 59, 123, 57, 30, 173, 60, 191, 54, 56, 233, 62, 103, 20, 9, 191, 168, 84, 222, 0, 29, 238, 134, 129, 93, 52, 123, 57, 247, 204, 221, 190, 141, 205, 93, 63, 77, 37, 161, 190, 168, 84, 222, 0, 29, 238, 134, 129, 69, 51, 217, 56, 33, 205, 93, 191, 28, 21, 9, 63, 0, 0, 0, 128, 168, 84, 222, 0, 29, 238, 134, 129, 209, 49, 123, 57, 13, 34, 144, 62, 65, 56, 233, 62, 57, 205, 93, 191, 4, 84, 161, 0, 125, 238, 247, 129, 69, 55, 123, 57, 238, 111, 41, 62, 144, 205, 93, 63, 233, 94, 2, 191, 4, 84, 161, 0, 125, 238, 247, 129, 139, 54, 217, 56, 58, 21, 137, 190, 58, 21, 9, 63, 229, 241, 82, 191, 4, 84, 161, 0, 125, 238, 247, 129, 209, 53, 123, 57, 91, 55, 105, 63, 177, 55, 233, 62, 0, 0, 0, 128, 91, 84, 232, 0, 47, 238, 116, 129, 23, 57, 123, 57, 179, 20, 9, 63, 99, 205, 93, 63, 0, 0, 0, 128, 91, 84, 232, 0, 47, 238, 116, 129, 186, 56, 217, 56, 244, 112, 51, 63, 33, 21, 9, 63, 6, 95, 2, 191, 91, 84, 232, 0, 47, 238, 116, 129, 93, 56, 123, 57, 179, 20, 9, 63, 99, 205, 93, 63, 0, 0, 0, 128, 34, 119, 232, 0, 74, 0, 102, 129, 186, 56, 217, 56, 0, 0, 0, 0, 58, 95, 130, 63, 0, 0, 0, 128, 34, 119, 232, 0, 74, 0, 102, 129, 93, 56, 56, 56, 238, 111, 41, 62, 144, 205, 93, 63, 233, 94, 2, 191, 34, 119, 232, 0, 74, 0, 102, 129, 255, 55, 217, 56, 179, 20, 9, 63, 99, 205, 93, 63, 0, 0, 0, 128, 62, 100, 211, 0, 74, 0, 102, 129, 186, 56, 217, 56, 238, 111, 41, 62, 144, 205, 93, 63, 233, 94, 2, 191, 62, 100, 211, 0, 74, 0, 102, 129, 255, 55, 217, 56, 244, 112, 51, 63, 33, 21, 9, 63, 6, 95, 2, 191, 62, 100, 211, 0, 74, 0, 102, 129, 93, 56, 123, 57, 244, 112, 51, 63, 33, 21, 9, 63, 6, 95, 2, 191, 51, 84, 177, 0, 95, 18, 81, 129, 93, 56, 123, 57, 238, 111, 41, 62, 144, 205, 93, 63, 233, 94, 2, 191, 51, 84, 177, 0, 95, 18, 81, 129, 255, 55, 217, 56, 13, 34, 144, 62, 65, 56, 233, 62, 57, 205, 93, 191, 51, 84, 177, 0, 95, 18, 81, 129, 69, 55, 123, 57, 238, 111, 41, 62, 144, 205, 93, 63, 233, 94, 2, 191, 243, 119, 216, 0, 120, 0, 217, 129, 139, 54, 217, 56, 0, 0, 0, 0, 58, 95, 130, 63, 0, 0, 0, 128, 243, 119, 216, 0, 120, 0, 217, 129, 209, 53, 56, 56, 247, 204, 221, 190, 141, 205, 93, 63, 77, 37, 161, 190, 243, 119, 216, 0, 120, 0, 217, 129, 23, 53, 217, 56, 238, 111, 41, 62, 144, 205, 93, 63, 233, 94, 2, 191, 233, 100, 183, 0, 120, 0, 217, 129, 139, 54, 217, 56, 247, 204, 221, 190, 141, 205, 93, 63, 77, 37, 161, 190, 233, 100, 183, 0, 120, 0, 217, 129, 23, 53, 217, 56, 58, 21, 137, 190, 58, 21, 9, 63, 229, 241, 82, 191, 233, 100, 183, 0, 120, 0, 217, 129, 209, 53, 123, 57, 58, 21, 137, 190, 58, 21, 9, 63, 229, 241, 82, 191, 197, 84, 182, 0, 107, 18, 191, 129, 209, 53, 123, 57, 247, 204, 221, 190, 141, 205, 93, 63, 77, 37, 161, 190, 197, 84, 182, 0, 107, 18, 191, 129, 23, 53, 217, 56, 30, 173, 60, 191, 54, 56, 233, 62, 103, 20, 9, 191, 197, 84, 182, 0, 107, 18, 191, 129, 93, 52, 123, 57, 247, 204, 221, 190, 141, 205, 93, 63, 77, 37, 161, 190, 214, 119, 0, 0, 0, 0, 129, 129, 69, 51, 217, 56, 0, 0, 0, 0, 58, 95, 130, 63, 0, 0, 0, 128, 214, 119, 0, 0, 0, 0, 129, 129, 209, 49, 56, 56, 247, 204, 221, 190, 141, 205, 93, 63, 77, 37, 161, 62, 214, 119, 0, 0, 0, 0, 129, 129, 93, 48, 217, 56, 247, 204, 221, 190, 141, 205, 93, 63, 77, 37, 161, 190, 179, 100, 0, 0, 0, 0, 129, 129, 69, 51, 217, 56, 247, 204, 221, 190, 141, 205, 93, 63, 77, 37, 161, 62, 179, 100, 0, 0, 0, 0, 129, 129, 93, 48, 217, 56, 33, 205, 93, 191, 28, 21, 9, 63, 0, 0, 0, 128, 179, 100, 0, 0, 0, 0, 129, 129, 209, 49, 123, 57, 33, 205, 93, 191, 28, 21, 9, 63, 0, 0, 0, 128, 168, 84, 34, 0, 227, 18, 134, 129, 209, 49, 123, 57, 247, 204, 221, 190, 141, 205, 93, 63, 77, 37, 161, 62, 168, 84, 34, 0, 227, 18, 134, 129, 93, 48, 217, 56, 30, 173, 60, 191, 54, 56, 233, 62, 103, 20, 9, 63, 168, 84, 34, 0, 227, 18, 134, 129, 209, 45, 123, 57, 247, 204, 221, 190, 141, 205, 93, 63, 77, 37, 161, 62, 243, 119, 40, 0, 136, 0, 217, 129, 162, 59, 217, 56, 0, 0, 0, 0, 58, 95, 130, 63, 0, 0, 0, 128, 243, 119, 40, 0, 136, 0, 217, 129, 69, 59, 56, 56, 238, 111, 41, 62, 144, 205, 93, 63, 233, 94, 2, 63, 243, 119, 40, 0, 136, 0, 217, 129, 232, 58, 217, 56, 247, 204, 221, 190, 141, 205, 93, 63, 77, 37, 161, 62, 233, 100, 73, 0, 136, 0, 217, 129, 162, 59, 217, 56, 238, 111, 41, 62, 144, 205, 93, 63, 233, 94, 2, 63, 233, 100, 73, 0, 136, 0, 217, 129, 232, 58, 217, 56, 58, 21, 137, 190, 58, 21, 9, 63, 229, 241, 82, 63, 233, 100, 73, 0, 136, 0, 217, 129, 69, 59, 123, 57, 58, 21, 137, 190, 58, 21, 9, 63, 229, 241, 82, 63, 4, 84, 95, 0, 131, 18, 247, 129, 69, 59, 123, 57, 238, 111, 41, 62, 144, 205, 93, 63, 233, 94, 2, 63, 4, 84, 95, 0, 131, 18, 247, 129, 232, 58, 217, 56, 13, 34, 144, 62, 65, 56, 233, 62, 57, 205, 93, 63, 4, 84, 95, 0, 131, 18, 247, 129, 139, 58, 123, 57, 238, 111, 41, 62, 144, 205, 93, 63, 233, 94, 2, 63, 34, 119, 24, 0, 182, 0, 102, 129, 46, 58, 217, 56, 0, 0, 0, 0, 58, 95, 130, 63, 0, 0, 0, 128, 34, 119, 24, 0, 182, 0, 102, 129, 209, 57, 56, 56, 179, 20, 9, 63, 99, 205, 93, 63, 0, 0, 0, 128, 34, 119, 24, 0, 182, 0, 102, 129, 116, 57, 217, 56, 238, 111, 41, 62, 144, 205, 93, 63, 233, 94, 2, 63, 62, 100, 45, 0, 182, 0, 102, 129, 46, 58, 217, 56, 179, 20, 9, 63, 99, 205, 93, 63, 0, 0, 0, 128, 62, 100, 45, 0, 182, 0, 102, 129, 116, 57, 217, 56, 244, 112, 51, 63, 33, 21, 9, 63, 6, 95, 2, 63, 62, 100, 45, 0, 182, 0, 102, 129, 209, 57, 123, 57, 244, 112, 51, 63, 33, 21, 9, 63, 6, 95, 2, 63, 91, 84, 24, 0, 209, 18, 116, 129, 209, 57, 123, 57, 179, 20, 9, 63, 99, 205, 93, 63, 0, 0, 0, 128, 91, 84, 24, 0, 209, 18, 116, 129, 116, 57, 217, 56, 91, 55, 105, 63, 177, 55, 233, 62, 0, 0, 0, 128, 91, 84, 24, 0, 209, 18, 116, 129, 23, 57, 123, 57, 139, 251, 119, 63, 0, 0, 0, 0, 119, 37, 161, 190, 112, 41, 216, 0, 47, 238, 116, 129, 186, 56, 28, 58, 91, 55, 105, 63, 177, 55, 233, 62, 0, 0, 0, 128, 112, 41, 216, 0, 47, 238, 116, 129, 23, 57, 123, 57, 244, 112, 51, 63, 33, 21, 9, 63, 6, 95, 2, 191, 112, 41, 216, 0, 47, 238, 116, 129, 93, 56, 123, 57, 139, 251, 119, 63, 0, 0, 0, 0, 119, 37, 161, 190, 100, 23, 183, 0, 74, 0, 102, 129, 186, 56, 28, 58, 244, 112, 51, 63, 33, 21, 9, 63, 6, 95, 2, 191, 100, 23, 183, 0, 74, 0, 102, 129, 93, 56, 123, 57, 245, 66, 25, 63, 0, 0, 0, 0, 59, 242, 82, 191, 100, 23, 183, 0, 74, 0, 102, 129, 255, 55, 28, 58, 245, 66, 25, 63, 0, 0, 0, 0, 59, 242, 82, 191, 72, 41, 161, 0, 95, 18, 81, 129, 255, 55, 28, 58, 244, 112, 51, 63, 33, 21, 9, 63, 6, 95, 2, 191, 72, 41, 161, 0, 95, 18, 81, 129, 93, 56, 123, 57, 13, 34, 144, 62, 65, 56, 233, 62, 57, 205, 93, 191, 72, 41, 161, 0, 95, 18, 81, 129, 69, 55, 123, 57, 0, 0, 0, 0, 0, 0, 0, 0, 57, 95, 130, 191, 253, 41, 137, 0, 125, 238, 247, 129, 139, 54, 28, 58, 13, 34, 144, 62, 65, 56, 233, 62, 57, 205, 93, 191, 253, 41, 137, 0, 125, 238, 247, 129, 69, 55, 123, 57, 58, 21, 137, 190, 58, 21, 9, 63, 229, 241, 82, 191, 253, 41, 137, 0, 125, 238, 247, 129, 209, 53, 123, 57, 0, 0, 0, 0, 0, 0, 0, 0, 57, 95, 130, 191, 218, 23, 138, 0, 120, 0, 217, 129, 139, 54, 28, 58, 58, 21, 137, 190, 58, 21, 9, 63, 229, 241, 82, 191, 218, 23, 138, 0, 120, 0, 217, 129, 209, 53, 123, 57, 245, 66, 25, 191, 0, 0, 0, 0, 59, 242, 82, 191, 218, 23, 138, 0, 120, 0, 217, 129, 23, 53, 28, 58, 245, 66, 25, 191, 0, 0, 0, 0, 59, 242, 82, 191, 189, 41, 158, 0, 107, 18, 191, 129, 23, 53, 28, 58, 58, 21, 137, 190, 58, 21, 9, 63, 229, 241, 82, 191, 189, 41, 158, 0, 107, 18, 191, 129, 209, 53, 123, 57, 30, 173, 60, 191, 54, 56, 233, 62, 103, 20, 9, 191, 189, 41, 158, 0, 107, 18, 191, 129, 93, 52, 123, 57, 139, 251, 119, 191, 0, 0, 0, 0, 119, 37, 161, 190, 142, 41, 222, 0, 29, 238, 134, 129, 69, 51, 28, 58, 30, 173, 60, 191, 54, 56, 233, 62, 103, 20, 9, 191, 142, 41, 222, 0, 29, 238, 134, 129, 93, 52, 123, 57, 33, 205, 93, 191, 28, 21, 9, 63, 0, 0, 0, 128, 142, 41, 222, 0, 29, 238, 134, 129, 209, 49, 123, 57, 139, 251, 119, 191, 0, 0, 0, 0, 119, 37, 161, 190, 132, 23, 0, 0, 0, 0, 129, 129, 69, 51, 28, 58, 33, 205, 93, 191, 28, 21, 9, 63, 0, 0, 0, 128, 132, 23, 0, 0, 0, 0, 129, 129, 209, 49, 123, 57, 139, 251, 119, 191, 0, 0, 0, 0, 119, 37, 161, 62, 132, 23, 0, 0, 0, 0, 129, 129, 93, 48, 28, 58, 139, 251, 119, 191, 0, 0, 0, 0, 119, 37, 161, 62, 142, 41, 34, 0, 227, 18, 134, 129, 93, 48, 28, 58, 33, 205, 93, 191, 28, 21, 9, 63, 0, 0, 0, 128, 142, 41, 34, 0, 227, 18, 134, 129, 209, 49, 123, 57, 30, 173, 60, 191, 54, 56, 233, 62, 103, 20, 9, 63, 142, 41, 34, 0, 227, 18, 134, 129, 209, 45, 123, 57, 245, 66, 25, 191, 0, 0, 0, 0, 59, 242, 82, 63, 189, 41, 98, 0, 149, 238, 191, 129, 162, 59, 28, 58, 30, 173, 60, 191, 54, 56, 233, 62, 103, 20, 9, 63, 189, 41, 98, 0, 149, 238, 191, 129, 0, 60, 123, 57, 58, 21, 137, 190, 58, 21, 9, 63, 229, 241, 82, 63, 189, 41, 98, 0, 149, 238, 191, 129, 69, 59, 123, 57, 245, 66, 25, 191, 0, 0, 0, 0, 59, 242, 82, 63, 218, 23, 118, 0, 136, 0, 217, 129, 162, 59, 28, 58, 58, 21, 137, 190, 58, 21, 9, 63, 229, 241, 82, 63, 218, 23, 118, 0, 136, 0, 217, 129, 69, 59, 123, 57, 0, 0, 0, 0, 0, 0, 0, 0, 57, 95, 130, 63, 218, 23, 118, 0, 136, 0, 217, 129, 232, 58, 28, 58, 0, 0, 0, 0, 0, 0, 0, 0, 57, 95, 130, 63, 253, 41, 119, 0, 131, 18, 247, 129, 232, 58, 28, 58, 58, 21, 137, 190, 58, 21, 9, 63, 229, 241, 82, 63, 253, 41, 119, 0, 131, 18, 247, 129, 69, 59, 123, 57, 13, 34, 144, 62, 65, 56, 233, 62, 57, 205, 93, 63, 253, 41, 119, 0, 131, 18, 247, 129, 139, 58, 123, 57, 245, 66, 25, 63, 0, 0, 0, 0, 59, 242, 82, 63, 72, 41, 95, 0, 161, 238, 81, 129, 46, 58, 28, 58, 13, 34, 144, 62, 65, 56, 233, 62, 57, 205, 93, 63, 72, 41, 95, 0, 161, 238, 81, 129, 139, 58, 123, 57, 244, 112, 51, 63, 33, 21, 9, 63, 6, 95, 2, 63, 72, 41, 95, 0, 161, 238, 81, 129, 209, 57, 123, 57, 245, 66, 25, 63, 0, 0, 0, 0, 59, 242, 82, 63, 100, 23, 73, 0, 182, 0, 102, 129, 46, 58, 28, 58, 244, 112, 51, 63, 33, 21, 9, 63, 6, 95, 2, 63, 100, 23, 73, 0, 182, 0, 102, 129, 209, 57, 123, 57, 139, 251, 119, 63, 0, 0, 0, 0, 119, 37, 161, 62, 100, 23, 73, 0, 182, 0, 102, 129, 116, 57, 28, 58, 139, 251, 119, 63, 0, 0, 0, 0, 119, 37, 161, 62, 112, 41, 40, 0, 209, 18, 116, 129, 116, 57, 28, 58, 244, 112, 51, 63, 33, 21, 9, 63, 6, 95, 2, 63, 112, 41, 40, 0, 209, 18, 116, 129, 209, 57, 123, 57, 91, 55, 105, 63, 177, 55, 233, 62, 0, 0, 0, 128, 112, 41, 40, 0, 209, 18, 116, 129, 23, 57, 123, 57, 245, 66, 25, 63, 0, 0, 0, 0, 59, 242, 82, 191, 38, 15, 137, 0, 120, 0, 39, 129, 255, 55, 28, 58, 13, 34, 144, 62, 65, 56, 233, 62, 57, 205, 93, 191, 38, 15, 137, 0, 120, 0, 39, 129, 69, 55, 123, 57, 0, 0, 0, 0, 0, 0, 0, 0, 57, 95, 130, 191, 38, 15, 137, 0, 120, 0, 39, 129, 139, 54, 28, 58, 245, 66, 25, 191, 0, 0, 0, 0, 59, 242, 82, 191, 155, 15, 182, 0, 74, 0, 154, 129, 23, 53, 28, 58, 30, 173, 60, 191, 54, 56, 233, 62, 103, 20, 9, 191, 155, 15, 182, 0, 74, 0, 154, 129, 93, 52, 123, 57, 139, 251, 119, 191, 0, 0, 0, 0, 119, 37, 161, 190, 155, 15, 182, 0, 74, 0, 154, 129, 69, 51, 28, 58, 139, 251, 119, 191, 0, 0, 0, 0, 119, 37, 161, 62, 155, 15, 74, 0, 182, 0, 154, 129, 93, 48, 28, 58, 30, 173, 60, 191, 54, 56, 233, 62, 103, 20, 9, 63, 155, 15, 74, 0, 182, 0, 154, 129, 209, 45, 123, 57, 245, 66, 25, 191, 0, 0, 0, 0, 59, 242, 82, 63, 155, 15, 74, 0, 182, 0, 154, 129, 209, 41, 28, 58, 0, 0, 0, 0, 0, 0, 0, 0, 57, 95, 130, 63, 38, 15, 119, 0, 136, 0, 39, 129, 232, 58, 28, 58, 13, 34, 144, 62, 65, 56, 233, 62, 57, 205, 93, 63, 38, 15, 119, 0, 136, 0, 39, 129, 139, 58, 123, 57, 245, 66, 25, 63, 0, 0, 0, 0, 59, 242, 82, 63, 38, 15, 119, 0, 136, 0, 39, 129, 46, 58, 28, 58, 139, 251, 119, 63, 0, 0, 0, 0, 119, 37, 161, 62, 125, 15, 0, 0, 0, 0, 127, 129, 116, 57, 28, 58, 91, 55, 105, 63, 177, 55, 233, 62, 0, 0, 0, 128, 125, 15, 0, 0, 0, 0, 127, 129, 23, 57, 123, 57, 139, 251, 119, 63, 0, 0, 0, 0, 119, 37, 161, 190, 125, 15, 0, 0, 0, 0, 127, 129, 186, 56, 28, 58, 139, 251, 119, 63, 0, 0, 0, 0, 119, 37, 161, 62, 124, 233, 0, 0, 0, 0, 127, 129, 116, 57, 28, 58, 139, 251, 119, 63, 0, 0, 0, 0, 119, 37, 161, 190, 124, 233, 0, 0, 0, 0, 127, 129, 186, 56, 28, 58, 33, 205, 93, 63, 28, 21, 9, 191, 0, 0, 0, 128, 124, 233, 0, 0, 0, 0, 127, 129, 23, 57, 189, 58, 33, 205, 93, 63, 28, 21, 9, 191, 0, 0, 0, 128, 111, 13, 58, 0, 200, 240, 112, 129, 23, 57, 189, 58, 139, 251, 119, 63, 0, 0, 0, 0, 119, 37, 161, 190, 111, 13, 58, 0, 200, 240, 112, 129, 186, 56, 28, 58, 35, 176, 145, 63, 54, 56, 233, 190, 103, 20, 9, 191, 111, 13, 58, 0, 200, 240, 112, 129, 93, 56, 189, 58, 165, 153, 85, 63, 141, 205, 93, 191, 77, 37, 161, 190, 79, 250, 98, 0, 243, 124, 18, 129, 255, 55, 94, 59, 35, 176, 145, 63, 54, 56, 233, 190, 103, 20, 9, 191, 79, 250, 98, 0, 243, 124, 18, 129, 93, 56, 189, 58, 111, 92, 152, 63, 45, 233, 115, 191, 52, 245, 27, 191, 79, 250, 98, 0, 243, 124, 18, 129, 69, 55, 189, 58, 33, 205, 93, 63, 28, 21, 9, 191, 0, 0, 0, 128, 105, 203, 45, 0, 200, 240, 112, 129, 23, 57, 189, 58, 35, 176, 145, 63, 54, 56, 233, 190, 103, 20, 9, 191, 105, 203, 45, 0, 200, 240, 112, 129, 93, 56, 189, 58, 165, 153, 85, 63, 141, 205, 93, 191, 77, 37, 161, 190, 105, 203, 45, 0, 200, 240, 112, 129, 186, 56, 94, 59 ),
"array_index_data": PoolByteArray(  ),
"blend_shape_data": [  ],
"format": 97303,
"index_count": 0,
"material": ExtResource( 2 ),
"primitive": 4,
"skeleton_aabb": [  ],
"vertex_count": 132
}

[sub_resource type="Animation" id=2]
resource_name = "crewHatAnimation"
length = 4.0
loop = true
tracks/0/type = "value"
tracks/0/path = NodePath(".:rotation_degrees")
tracks/0/interp = 1
tracks/0/loop_wrap = true
tracks/0/imported = false
tracks/0/enabled = true
tracks/0/keys = {
"times": PoolRealArray( 0, 1, 2, 3, 4 ),
"transitions": PoolRealArray( 1, 1, 1, 1, 1 ),
"update": 0,
"values": [ Vector3( 0, 0, 0 ), Vector3( 0, 90, 0 ), Vector3( 0, 180, 0 ), Vector3( 0, 270, 0 ), Vector3( 0, 360, 0 ) ]
}
tracks/1/type = "value"
tracks/1/path = NodePath(".:scale")
tracks/1/interp = 1
tracks/1/loop_wrap = true
tracks/1/imported = false
tracks/1/enabled = true
tracks/1/keys = {
"times": PoolRealArray( 0, 1, 2, 3, 4 ),
"transitions": PoolRealArray( 1, 1, 1, 1, 1 ),
"update": 0,
"values": [ Vector3( 0.5, 0.5, 0.5 ), Vector3( 0.5, 0.5, 0.5 ), Vector3( 0.5, 0.5, 0.5 ), Vector3( 0.5, 0.5, 0.5 ), Vector3( 0.5, 0.5, 0.5 ) ]
}

[node name="piratecrewHat" type="Spatial"]
transform = Transform( 0.5, 0, 3.25841e-07, 0, 0.5, 0, -3.25841e-07, 0, 0.5, 0, 0, 0 )
script = ExtResource( 3 )

[node name="PirateCrewHat" type="MeshInstance" parent="."]
transform = Transform( 0.981806, 0, 0, 0, 0.981806, 0, 0, 0, 0.981806, 0, 1, 0 )
mesh = SubResource( 1 )
material/0 = null
material/1 = null

[node name="AnimationPlayer" type="AnimationPlayer" parent="."]
autoplay = "crewHatAnimation"
anims/crewHatAnimation = SubResource( 2 )
